{
    "COLORS":{
        "TITLE":{
            "DK":"Farver",
            "UK":"Colors",
            "SE":"F&auml;rger",
            "NO":"Farger"
        },
        "GROUPS":{
            "DESIGN":{
                "TITLE":{
                    "DK":"Template farver",
                    "UK":"Template colors",
                    "SE":"Mallf&auml;rger",
                    "NO":"Malfarger"
                },
                "SETTINGS":{
                    "DESIGN_HEADER_BACKGROUND_COLOR":{
                        "TYPE":"COLOR_PICKER",
                        "TITLE":{
                            "DK":"Baggrundsfarve for top",
                            "UK":"Header background color",
                            "SE":"Bakgrundsf&auml;rg, topp",
                            "NO":"Bakgrunnsfarge for topp"
                        },
                        "TO_SCSS":"TRUE"
                    },
                    "DESIGN_NAVIGATION_BACKGROUND_COLOR":{
                        "TYPE":"COLOR_PICKER",
                        "TITLE":{
                            "DK":"Baggrundsfarve for navigation",
                            "UK":"Navigation background color",
                            "SE":"Bakgrundsf&auml;rg, navigation",
                            "NO":"Bakgrunnsfarge for navigasjon"
                        },
                        "TO_SCSS":"TRUE"
                    },
                    "DESIGN_NAVIGATION_FONT_COLOR":{
                        "TYPE":"COLOR_PICKER",
                        "TITLE":{
                            "DK":"Tekst farve for navigation",
                            "UK":"Navigation font color",
                            "SE":"Textf&auml;rg, navigation",
                            "NO":"Skriftfarge for navigasjon"
                        },
                        "TO_SCSS":"TRUE"
                    },
                    "DESIGN_BODY_BACKGROUND_COLOR":{
                        "TYPE":"COLOR_PICKER",
                        "TITLE":{
                            "DK":"Baggrundsfarve for siden",
                            "UK":"Page background color",
                            "SE":"Bakgrundsf&auml;rg, sida",
                            "NO":"Bakgrunnsfarge for side"
                        },
                        "TO_SCSS":"TRUE"
                    },
                    "DESIGN_WRAPPER_BACKGROUND_COLOR":{
                        "TYPE":"COLOR_PICKER",
                        "TITLE":{
                            "DK":"Baggrundsfarve for indhold",
                            "UK":"Main content background color",
                            "SE":"Bakgrundsf&auml;rg, inneh&aring;ll",
                            "NO":"Bakgrunnsfarge for innhold"
                        },
                        "TO_SCSS":"TRUE"
                    },
                    "DESIGN_FOOTER_BACKGROUND_COLOR":{
                        "TYPE":"COLOR_PICKER",
                        "TITLE":{
                            "DK":"Baggrundsfarve for bund",
                            "UK":"Footer background color",
                            "SE":"Bakgrundsf&auml;rg, botten",
                            "NO":"Bakgrunnsfarge for bunn"
                        },
                        "TO_SCSS":"TRUE"
                    },
                    "DESIGN_BOX_BACKGROUND_COLOR":{
                        "TYPE":"COLOR_PICKER",
                        "TITLE":{
                            "DK":"Baggrundsfarve for bokse",
                            "UK":"Box background color",
                            "SE":"Bakgrundsf&auml;rg, box",
                            "NO":"Bakgrunnsfarge for boks"
                        },
                        "TO_SCSS":"TRUE"
                    },
                    "DESIGN_BORDER_COLOR":{
                        "TYPE":"COLOR_PICKER",
                        "TITLE":{
                            "DK":"Ramme farve",
                            "UK":"Border color",
                            "SE":"F&auml;rg p&aring; ram",
                            "NO":"Rammefarge"
                        },
                        "TO_SCSS":"TRUE"
                    },
                    "DESIGN_IMAGE_BACKGROUND_COLOR":{
                        "TYPE":"COLOR_PICKER",
                        "TITLE":{
                            "DK":"Baggrundsfarve for billeder",
                            "UK":"Background color for images",
                            "SE":"Bakgrund f&auml;rgbilder",
                            "NO":"Bakgrunnsfargebilder"
                        },
                        "TO_SCSS":"FALSE"
                    }
                }
            },
            "FONT":{
                "TITLE":{
                    "DK":"Tekst farver",
                    "UK":"Text colors",
                    "SE":"Textf&auml;rger",
                    "NO":"Skriftfarger"
                },
                "SETTINGS":{
                    "FONT_COLOR_PRIMARY":{
                        "TYPE":"COLOR_PICKER",
                        "TITLE":{
                            "DK":"Generel tekst farve",
                            "UK":"Base text color",
                            "SE":"Generell textf&auml;rg",
                            "NO":"Generell skriftfarge"
                        },
                        "TO_SCSS":"TRUE"
                    },
                    "FONT_COLOR_HEADLINE":{
                        "TYPE":"COLOR_PICKER",
                        "TITLE":{
                            "DK":"Overskrift tekst farve",
                            "UK":"Headline text color",
                            "SE":"Textf&auml;rg, &ouml;verskrift",
                            "NO":"Skriftfarge, overskrift"
                        },
                        "TO_SCSS":"TRUE"
                    },
                    "FONT_COLOR_LINK":{
                        "TYPE":"COLOR_PICKER",
                        "TITLE":{
                            "DK":"Link og highlight farve",
                            "UK":"Link and highlight color",
                            "SE":"L&auml;nk- och markeringsf&auml;rg",
                            "NO":"Link- og highlight farve"
                        },
                        "TO_SCSS":"TRUE"
                    }
                }
            },
            "BUTTONS":{
                "TITLE":{
                    "DK":"Knap farver",
                    "UK":"Button colors",
                    "SE":"F&auml;rger på knappar",
                    "NO":"Knappfarger"
                },
                "SETTINGS":{
                    "BUTTON_PRIMARY_BACKGROUND_COLOR":{
                        "TYPE":"COLOR_PICKER",
                        "TITLE":{
                            "DK":"Prim&aelig;r knap baggrundsfarve",
                            "UK":"Primary button background color",
                            "SE":"Prim&auml;r bakgrundsf&auml;rg",
                            "NO":"Prim&aelig;r bakgrunnsfarge"
                        },
                        "TO_SCSS":"TRUE"
                    },
                    "BUTTON_PRIMARY_FONT_COLOR":{
                        "TYPE":"COLOR_PICKER",
                        "TITLE":{
                            "DK":"Prim&aelig;r knap tekst farve",
                            "UK":"Primary button text color",
                            "SE":"Prim&auml;r textf&auml;rg",
                            "NO":"Prim&aelig;r skriftfarge"
                        },
                        "TO_SCSS":"TRUE"
                    },
                    "BUTTON_DEFAULT_BACKGROUND_COLOR":{
                        "TYPE":"COLOR_PICKER",
                        "TITLE":{
                            "DK":"Sekund&aelig;r knap baggrundsfarve",
                            "UK":"Secondary button background color",
                            "SE":"Sekund&auml;r bakgrundsf&auml;rg",
                            "NO":"Sekund&aelig;r bakgrunnsfarge"
                        },
                        "TO_SCSS":"TRUE"
                    },
                    "BUTTON_DEFAULT_FONT_COLOR":{
                        "TYPE":"COLOR_PICKER",
                        "TITLE":{
                            "DK":"Sekund&aelig;r knap tekst farve",
                            "UK":"Secondary button text color",
                            "SE":"Sekund&auml;r textf&auml;rg",
                            "NO":"Sekund&aelig;r skriftfarge"
                        },
                        "TO_SCSS":"TRUE"
                    }
                }
            },
            "MISCELLANEOUS":{
                "TITLE":{
                    "DK":"Diverse farver",
                    "UK":"Miscellaneous colors",
                    "SE":"&Ouml;vriga f&auml;rger",
                    "NO":"Diverse farger"
                },
                "SETTINGS":{
                    "PANEL_CALLOUT_COLOR":{
                        "TYPE":"COLOR_PICKER",
                        "TITLE":{
                            "DK":"Infoboks farve, succes",
                            "UK":"Info box color, success",
                            "SE":"Informationsbox, lyckad",
                            "NO":"Informasjonsboks, suksess"
                        },
                        "TO_SCSS":"TRUE"
                    },
                    "PANEL_WARNING_COLOR":{
                        "TYPE":"COLOR_PICKER",
                        "TITLE":{
                            "DK":"Infoboks farve, neutral",
                            "UK":"Info box color, neutral",
                            "SE":"Informationsbox, neutral",
                            "NO":"Informasjonsboks, n&oslash;ytral"
                        },
                        "TO_SCSS":"TRUE"
                    },
                    "PANEL_DANGER_COLOR":{
                        "TYPE":"COLOR_PICKER",
                        "TITLE":{
                            "DK":"Infoboks farve, advarsel",
                            "UK":"Info box color, warning",
                            "SE":"Informationsbox, varning",
                            "NO":"Informasjonsboks, advarsel"
                        },
                        "TO_SCSS":"TRUE"
                    },
                    "MODULE_RATING_COLOR":{
                        "TYPE":"COLOR_PICKER",
                        "TITLE":{
                            "DK":"Farve for stjerner ved anmeldelser",
                            "UK":"Stars color in rated reviews",
                            "SE":"F&auml;rg på stj&auml;rnor vid omd&ouml;men",
                            "NO":"Farge på stjerner ved anmeldelser"
                        },
                        "TO_SCSS":"TRUE"
                    }
                }
            }
        }
    },
    "DESIGN":{
        "TITLE":{
            "DK":"Grafik & skrifttyper",
            "UK":"Graphics & Fonts",
            "SE":"Grafik & teckensnitt",
            "NO":"Grafikk & skrifttyper"
        },
        "GROUPS":{
            "LOGO":{
                "TITLE":{
                    "DK":"Logo",
                    "UK":"Logo",
                    "SE":"Logo",
                    "NO":"Logo"
                },
                "SETTINGS":{
                    "LOGO_TYPE":{
                        "TYPE":"DROPDOWN",
                        "TITLE":{
                            "DK":"Logo type",
                            "UK":"Logo type",
                            "SE":"Typ av logga",
                            "NO":"Type av logo"
                        },
                        "OPTIONS":{
                            "TEXT": {
                                "TITLE": {
                                    "DK":"Tekst",
                                    "UK":"Text",
                                    "SE":"Text",
                                    "NO":"Tekst"
                                }
                            },
                            "PICTURE": {
                                "TITLE": {
                                    "DK":"Grafik",
                                    "UK":"Graphic",
                                    "SE":"Grafik",
                                    "NO":"Grafikk"
                                }
                            }
                        }
                    },
                    "LOGO_SOURCE" : {
                        "TYPE":"IMAGE_PICKER",
                        "LANGUAGE_DEPENDENT":"TRUE",
                        "TITLE":{
                            "DK":"Logo grafik website",
                            "UK":"Logo graphic website",
                            "SE":"Grafisk logga på site",
                            "NO":"Grafisk logo på nettside"
                        },
                        "HINT": {
                            "DK": "maksimum 1240px bred",
                            "UK": "max 1240px wide",
                            "SE": "maximal 1240px bred",
                            "NO": "maksimum 1240px bredt"
                        },
                        "TO_SCSS":"TRUE"
                    },
                    "LOGO_SOURCE_NEGATIVE" : {
                        "TYPE":"IMAGE_PICKER",
                        "LANGUAGE_DEPENDENT":"TRUE",
                        "TITLE":{
                            "DK":"Logo grafik e-mails, pdf mv.",
                            "UK":"Logo graphic e-mails, pdf etc.",
                            "SE":"Grafisk logga f&ouml;r e-post, pdf etc.",
                            "NO":"Grafisk logo for e-post, pdf etc."
                        },
                        "TO_SCSS":"TRUE"
                    },
                    "LOGO_COLOR":{
                        "TYPE":"COLOR_PICKER",
                        "TITLE":{
                            "DK":"Logo tekst farve",
                            "UK":"Logo text color",
                            "SE":"Textlogga, f&auml;rg",
                            "NO":"Logo tekst, farge"
                        },
                        "TO_SCSS":"TRUE"
                    }
                }
            },
            "FONTS":{
                "TITLE":{
                    "DK":"Skrifttyper",
                    "UK":"Fonts",
                    "SE":"Teckensnitt",
                    "NO":"Skrifttyper"
                },
                "SETTINGS":{
                    "FONT_FAMILY_BASE":{
                        "TYPE":"DROPDOWN",
                        "TITLE":{
                            "DK":"Skrifttype generel",
                            "UK":"Base font",
                            "SE":"Generellt teckensnitt",
                            "NO":"Generell skrifttype"
                        },
                        "OPTIONS":{
                            "'Georgia', serif": {
                                "TITLE": {
                                    "DK": "Georgia, serif",
                                    "UK": "Georgia, serif"
                                }
                            },
                            "'Palatino Linotype', 'Book Antiqua', 'Palatino', serif": {
                                "TITLE": {
                                    "DK": "Palatino Linotype, Book Antiqua, Palatino, serif",
                                    "UK": "Palatino Linotype, Book Antiqua, Palatino, serif"
                                }
                            },
                            "'Times New Roman', 'Times', serif": {
                                "TITLE": {
                                    "DK": "Times New Roman, Times, serif",
                                    "UK": "Times New Roman, Times, serif"
                                }
                            },
                            "'Helvetica', 'Arial', sans-serif": {
                                "TITLE": {
                                    "DK": "Helvetica, Arial, sans-serif",
                                    "UK": "Helvetica, Arial, sans-serif"
                                }
                            },
                            "'Lucida Sans Unicode', 'Lucida Grande', sans-serif": {
                                "TITLE": {
                                    "DK": "Lucida Sans Unicode, Lucida Grande, sans-serif",
                                    "UK": "Lucida Sans Unicode, Lucida Grande, sans-serif"
                                }
                            },
                            "'Trebuchet MS', 'Helvetica', sans-serif": {
                                "TITLE": {
                                    "DK": "Trebuchet MS, Helvetica, sans-serif",
                                    "UK": "Trebuchet MS, Helvetica, sans-serif"
                                }
                            },
                            "'Tahoma', 'Geneva', sans-serif": {
                                "TITLE": {
                                    "DK": "Tahoma, Geneva, sans-serif",
                                    "UK": "Tahoma, Geneva, sans-serif"
                                }
                            },
                            "'Verdana', 'Geneva', sans-serif": {
                                "TITLE": {
                                    "DK": "Verdana, Geneva, sans-serif",
                                    "UK": "Verdana, Geneva, sans-serif"
                                }
                            },
                            "'Arial Black', 'Gadget', sans-serif": {
                                "TITLE": {
                                    "DK": "Arial Black, Gadget, sans-serif",
                                    "UK": "Arial Black, Gadget, sans-serif"
                                }
                            },
                            "'Impact', 'Charcoal', sans-serif": {
                                "TITLE": {
                                    "DK": "Impact, Charcoal, sans-serif",
                                    "UK": "Impact, Charcoal, sans-serif"
                                }
                            },
                            "'Courier New', 'Courier', monospace": {
                                "TITLE": {
                                    "DK": "Courier New, Courier, monospace",
                                    "UK": "Courier New, Courier, monospace"
                                }
                            },
                            "'Lucida Console', 'Monaco', monospace": {
                                "TITLE": {
                                    "DK": "Lucida Console, Monaco, monospace",
                                    "UK": "Lucida Console, Monaco, monospace"
                                }
                            }
                        },
                        "TO_SCSS":"TRUE"
                    },
                    "FONT_FAMILY_HEADLINE":{
                        "TYPE":"DROPDOWN",
                        "TITLE":{
                            "DK":"Skrifttype overskrift",
                            "UK":"Headline font",
                            "SE":"Teckensnitt, &ouml;verskrift",
                            "NO":"Skrifttype, overskrift"
                        },
                        "OPTIONS":{

                            "'Arial Black', 'Gadget', sans-serif": {
                                "TITLE": {
                                    "DK": "Arial Black, Gadget, sans-serif",
                                    "UK": "Arial Black, Gadget, sans-serif"
                                }
                            },
                            "'Arvo', serif|https://fonts.googleapis.com/css?family=Arvo:400,700": {
                                "TITLE": {
                                    "DK": "Arvo, serif",
                                    "UK": "Arvo, serif"
                                }
                            },
                            "'Courier New', 'Courier', monospace": {
                                "TITLE": {
                                    "DK": "Courier New, Courier, monospace",
                                    "UK": "Courier New, Courier, monospace"
                                }
                            },
                            "'Droid Sans', sans-serif|https://fonts.googleapis.com/css?family=Droid+Sans:400,700": {
                                "TITLE": {
                                    "DK": "Droid Sans, sans-serif",
                                    "UK": "Droid Sans, sans-serif"
                                }
                            },
                            "'Droid Serif', serif|https://fonts.googleapis.com/css?family=Droid+Serif:400,700": {
                                "TITLE": {
                                    "DK": "Droid Serif, serif",
                                    "UK": "Droid Serif, serif"
                                }
                            },
                            "'Georgia', serif": {
                                "TITLE": {
                                    "DK": "Georgia, serif",
                                    "UK": "Georgia, serif"
                                }
                            },
                            "'Helvetica', 'Arial', sans-serif": {
                                "TITLE": {
                                    "DK": "Helvetica, Arial, sans-serif",
                                    "UK": "Helvetica, Arial, sans-serif"
                                }
                            },
                            "'Impact', 'Charcoal', sans-serif": {
                                "TITLE": {
                                    "DK": "Impact, Charcoal, sans-serif",
                                    "UK": "Impact, Charcoal, sans-serif"
                                }
                            },
                            "'Inconsolata', |https://fonts.googleapis.com/css?family=Inconsolata:400,700": {
                                "TITLE": {
                                    "DK": "Inconsolata, ",
                                    "UK": "Inconsolata, "
                                }
                            },
                            "'Indie Flower', cursive|https://fonts.googleapis.com/css?family=Indie+Flower:400,700": {
                                "TITLE": {
                                    "DK": "Indie Flower, cursive",
                                    "UK": "Indie Flower, cursive"
                                }
                            },
                            "'Lato', sans-serif|https://fonts.googleapis.com/css?family=Lato:400,700": {
                                "TITLE": {
                                    "DK": "Lato, sans-serif",
                                    "UK": "Lato, sans-serif"
                                }
                            },
                            "'Lobster', cursive|https://fonts.googleapis.com/css?family=Lobster:400,700": {
                                "TITLE": {
                                    "DK": "Lobster, cursive",
                                    "UK": "Lobster, cursive"
                                }
                            },
                            "'Lora', serif|https://fonts.googleapis.com/css?family=Lora:400,700": {
                                "TITLE": {
                                    "DK": "Lora, serif",
                                    "UK": "Lora, serif"
                                }
                            },
                            "'Lucida Console', 'Monaco', monospace": {
                                "TITLE": {
                                    "DK": "Lucida Console, Monaco, monospace",
                                    "UK": "Lucida Console, Monaco, monospace"
                                }
                            },
                            "'Lucida Sans Unicode', 'Lucida Grande', sans-serif": {
                                "TITLE": {
                                    "DK": "Lucida Sans Unicode, Lucida Grande, sans-serif",
                                    "UK": "Lucida Sans Unicode, Lucida Grande, sans-serif"
                                }
                            },
                            "'Merriweather', serif|https://fonts.googleapis.com/css?family=Merriweather:300,700": {
                                "TITLE": {
                                    "DK": "Merriweather, serif",
                                    "UK": "Merriweather, serif"
                                }
                            },
                            "'Old Standard TT', serif|https://fonts.googleapis.com/css?family=Old+Standard+TT:400,700": {
                                "TITLE": {
                                    "DK": "Old Standard TT, serif",
                                    "UK": "Old Standard TT, serif"
                                }
                            },
                            "'Open Sans', sans-serif|https://fonts.googleapis.com/css?family=Open+Sans:400,700": {
                                "TITLE": {
                                    "DK": "Open Sans, sans-serif",
                                    "UK": "Open Sans, sans-serif"
                                }
                            },
                            "'Oswald', sans-serif|https://fonts.googleapis.com/css?family=Oswald:400,700": {
                                "TITLE": {
                                    "DK": "Oswald, sans-serif",
                                    "UK": "Oswald, sans-serif"
                                }
                            },
                            "'Oswald', sans-serif|https://fonts.googleapis.com/css?family=Oswald:300,700": {
                                "TITLE": {
                                    "DK": "Oswald LT, sans-serif",
                                    "UK": "Oswald LT, sans-serif"
                                }
                            },
                            "'Palatino Linotype', 'Book Antiqua', 'Palatino', serif": {
                                "TITLE": {
                                    "DK": "Palatino Linotype, Book Antiqua, Palatino, serif",
                                    "UK": "Palatino Linotype, Book Antiqua, Palatino, serif"
                                }
                            },
                            "'PT Sans', sans-serif|https://fonts.googleapis.com/css?family=PT+Sans:400,700": {
                                "TITLE": {
                                    "DK": "PT Sans, sans-serif",
                                    "UK": "PT Sans, sans-serif"
                                }
                            },
                            "'Raleway', sans-serif|https://fonts.googleapis.com/css?family=Raleway:400,700": {
                                "TITLE": {
                                    "DK": "Raleway, sans-serif",
                                    "UK": "Raleway, sans-serif"
                                }
                            },
                            "'Roboto', sans-serif|https://fonts.googleapis.com/css?family=Roboto:300,700": {
                                "TITLE": {
                                    "DK": "Roboto, sans-serif",
                                    "UK": "Roboto, sans-serif"
                                }
                            },
                            "'Roboto Slab', serif|https://fonts.googleapis.com/css?family=Roboto+Slab:300,700": {
                                "TITLE": {
                                    "DK": "Roboto Slab, serif",
                                    "UK": "Roboto Slab, serif"
                                }
                            },
                            "'Vollkorn', serif|https://fonts.googleapis.com/css?family=Vollkorn:400,700": {
                                "TITLE": {
                                    "DK": "Vollkorn, serif",
                                    "UK": "Vollkorn, serif"
                                }
                            },
                            "'Shadows Into Light', cursive|https://fonts.googleapis.com/css?family=Shadows+Into+Light:400,700": {
                                "TITLE": {
                                    "DK": "Shadows Into Light, cursive",
                                    "UK": "Shadows Into Light, cursive"
                                }
                            },
                            "'Tahoma', 'Geneva', sans-serif": {
                                "TITLE": {
                                    "DK": "Tahoma, Geneva, sans-serif",
                                    "UK": "Tahoma, Geneva, sans-serif"
                                }
                            },
                            "'Times New Roman', 'Times', serif": {
                                "TITLE": {
                                    "DK": "Times New Roman, Times, serif",
                                    "UK": "Times New Roman, Times, serif"
                                }
                            },
                            "'Trebuchet MS', 'Helvetica', sans-serif": {
                                "TITLE": {
                                    "DK": "Trebuchet MS, Helvetica, sans-serif",
                                    "UK": "Trebuchet MS, Helvetica, sans-serif"
                                }
                            },
                            "'Ubuntu', FONTTYPE|https://fonts.googleapis.com/css?family=Ubuntu:300,700": {
                                "TITLE": {
                                    "DK": "Ubuntu, sans-serif",
                                    "UK": "Ubuntu, sans-serif"
                                }
                            },
                            "'Verdana', 'Geneva', sans-serif": {
                                "TITLE": {
                                    "DK": "Verdana, Geneva, sans-serif",
                                    "UK": "Verdana, Geneva, sans-serif"
                                }
                            }
                        },
                        "TO_SCSS":"TRUE"
                    }
                }
            },
            "IMAGE_MANIPULATION":{
                "TITLE":{
                    "DK":"Diverse grafik",
                    "UK":"Various graphics",
                    "SE":"Övrig grafik",
                    "NO":"Diverse grafikk"
                },
                "SETTINGS":{
                    "IMAGE_FAVICON":{
                        "TYPE":"IMAGE_PICKER",
                        "TITLE":{
                            "DK":"Favicon",
                            "UK":"Favicon",
                            "SE":"Favicon",
                            "NO":"Favicon"
                        }
                    },
                    "IMAGE_BACKGROUND":{
                        "TYPE":"IMAGE_PICKER",
                        "TITLE":{
                            "DK":"Sidens baggrundsbillede",
                            "UK":"Page background image",
                            "SE":"Sidans bakgrundsbild",
                            "NO":"Sidens bakgrunnsbilde"
                        },
                        "TO_SCSS":"TRUE"
                    },
                    "IMAGE_WATERMARK_SOURCE":{
                        "TYPE":"IMAGE_PICKER",
                        "TITLE":{
                            "DK":"Vandm&aelig;rke",
                            "UK":"Watermark",
                            "SE":"Vattenm&auml;rke",
                            "NO":"Vannmerke"
                        }
                    },
                    "IMAGE_WATERMARK_PLACEMENT":{
                        "TYPE":"DROPDOWN",
                        "TITLE":{
                            "DK":"Vandm&aelig;rke placering",
                            "UK":"Watermark location",
                            "SE":"Vattenm&auml;rke, placering",
                            "NO":"Vannmerke, plassering"
                        },
                        "OPTIONS":{
                            "BOTTOMLEFT": {
                                "TITLE": {
                                    "DK":"Bund venstre",
                                    "UK":"Bottom left",
                                    "SE":"Botten v&auml;nster",
                                    "NO":"Bunn venstre"
                                }
                            },
                            "BOTTOMRIGHT": {
                                "TITLE": {
                                    "DK":"Bund h&oslash;jre",
                                    "UK":"Bottom right",
                                    "SE":"Botten h&ouml;ger",
                                    "NO":"Bunn venstre"
                                }
                            },
                            "TOPLEFT": {
                                "TITLE": {
                                    "DK":"Top venstre",
                                    "UK":"Top left",
                                    "SE":"Toppen v&auml;nster",
                                    "NO":"Bunn venstre"
                                }
                            },
                            "TOPRIGHT": {
                                "TITLE": {
                                    "DK":"Top h&oslash;jre",
                                    "UK":"Top right",
                                    "SE":"Toppen h&ouml;ger",
                                    "NO":"Topp h&oslash;jre"
                                }
                            },
                            "CENTER": {
                                "TITLE": {
                                    "DK":"Centreret",
                                    "UK":"Center",
                                    "SE":"Centrerad",
                                    "NO":"Sentrert"
                                }
                            }
                        }
                    },
                    "IMAGE_WATERMARK_SIZE":{
                        "TYPE":"DROPDOWN",
                        "TITLE":{
                            "DK":"Vandm&aelig;rke st&oslash;rrelse",
                            "UK":"Watermark size",
                            "SE":"Vattenm&ouml;rke, storlek",
                            "NO":"Vannmerke, st&oslash;rrelse"
                        },
                        "OPTIONS":{
                            "10": {
                                "TITLE": {
                                    "DK": "10 %",
                                    "UK": "10 %"
                                }
                            },
                            "20": {
                                "TITLE": {
                                    "DK": "20 %",
                                    "UK": "20 %"
                                }
                            },
                            "30": {
                                "TITLE": {
                                    "DK": "30 %",
                                    "UK": "30 %"
                                }
                            },
                            "40": {
                                "TITLE": {
                                    "DK": "40 %",
                                    "UK": "40 %"
                                }
                            },
                            "50": {
                                "TITLE": {
                                    "DK": "50 %",
                                    "UK": "50 %"
                                }
                            }
                        }
                    }
                }
            }
        }
    },
    "SETTINGS":{
        "TITLE":{
            "DK":"Indstillinger",
            "UK":"Settings",
            "SE":"Inst&auml;llningar",
            "NO":"Innstillinger"
        },
        "GROUPS":{
            "DESIGN_SETTINGS":{
                "TITLE":{
                    "DK":"Template indstillinger",
                    "UK":"Template settings",
                    "SE":"Mallinst&auml;llningar",
                    "NO":"Mal innstillinger"
                },
                "SETTINGS":{
                    "SETTINGS_SHOW_BREADCRUMB":{
                        "TYPE":"DROPDOWN",
                        "TITLE":{
                            "DK":"Vis navigationslinje (breadcrumb)",
                            "UK":"Show navigation bar (breadcrumb)",
                            "SE":"Visa navigationslinje (breadcrumb)",
                            "NO":"Vis navigasjonslinje (breadcrumb)"
                        },
                        "OPTIONS":{
                            "true": {
                                "TITLE": {
                                    "DK":"Ja",
                                    "UK":"Yes",
                                    "SE":"Ja",
                                    "NO":"Ja"
                                }
                            },
                            "false": {
                                "TITLE": {
                                    "DK":"Nej",
                                    "UK":"No",
                                    "SE":"Nej",
                                    "NO":"Nej"
                                }
                            }
                        }
                    },
                    "SETTINGS_SHOW_SEARCH":{
                        "TYPE":"DROPDOWN",
                        "TITLE":{
                            "DK":"Vis søgefelt",
                            "UK":"Show search field",
                            "SE":"Visa s&ouml;kf&auml;lt",
                            "NO":"Vis s&oslash;kfelt"
                        },
                        "OPTIONS":{
                            "true": {
                                "TITLE": {
                                    "DK":"Ja",
                                    "UK":"Yes",
                                    "SE":"Ja",
                                    "NO":"Ja"
                                }
                            },
                            "false": {
                                "TITLE": {
                                    "DK":"Nej",
                                    "UK":"No",
                                    "SE":"Nej",
                                    "NO":"Nej"
                                }
                            }
                        }
                    },
                    "SETTINGS_SHOW_CART":{
                        "TYPE":"DROPDOWN",
                        "MODULE":"SHOP",
                        "TITLE":{
                            "DK":"Vis lille indkøbskurv",
                            "UK":"Show small cart",
                            "SE":"Visa varukorg (liten ikon)",
                            "NO":"Vis handlekurv (liten ikon)"
                        },
                        "OPTIONS":{
                            "true": {
                                "TITLE": {
                                    "DK":"Ja",
                                    "UK":"Yes",
                                    "SE":"Ja",
                                    "NO":"Ja"
                                }
                            },
                            "false": {
                                "TITLE": {
                                    "DK":"Nej",
                                    "UK":"No",
                                    "SE":"Nej",
                                    "NO":"Nej"
                                }
                            }
                        }
                    },
                    "SETTINGS_SHOW_MY_ACCOUNT":{
                        "TYPE":"DROPDOWN",
                        "TITLE":{
                            "DK":"Vis din konto (log ind) i menu",
                            "UK":"Show your account (login) in menu",
                            "SE":"Visa ditt konto",
                            "NO":"Vis din konto"
                        },
                        "OPTIONS":{
                            "true": {
                                "TITLE": {
                                    "DK":"Ja",
                                    "UK":"Yes",
                                    "SE":"Ja",
                                    "NO":"Ja"
                                }
                            },
                            "false": {
                                "TITLE": {
                                    "DK":"Nej",
                                    "UK":"No",
                                    "SE":"Nej",
                                    "NO":"Nej"
                                }
                            }
                        }
                    },
                    "SETTINGS_SHOW_PRINT":{
                        "TYPE":"DROPDOWN",
                        "TITLE":{
                            "DK":"Vis printvenlig ikon",
                            "UK":"Show printer-friendly icon",
                            "SE":"Visa utskriftsv&auml;nlig sida",
                            "NO":"Vis utskriftsvennlig ikon"
                        },
                        "OPTIONS":{
                            "true": {
                                "TITLE": {
                                    "DK":"Ja",
                                    "UK":"Yes",
                                    "SE":"Ja",
                                    "NO":"Ja"
                                }
                            },
                            "false": {
                                "TITLE": {
                                    "DK":"Nej",
                                    "UK":"No",
                                    "SE":"Nej",
                                    "NO":"Nej"
                                }
                            }
                        }
                    },
                    "SETTINGS_SHOW_SITEMAP":{
                        "TYPE":"DROPDOWN",
                        "TITLE":{
                            "DK":"Vis sitemap link",
                            "UK":"Show sitemap link",
                            "SE":"Visa sitemap l&auml;nk",
                            "NO":"Vis sitemap link"
                        },
                        "OPTIONS":{
                            "true": {
                                "TITLE": {
                                    "DK":"Ja",
                                    "UK":"Yes",
                                    "SE":"Ja",
                                    "NO":"Ja"
                                }
                            },
                            "false": {
                                "TITLE": {
                                    "DK":"Nej",
                                    "UK":"No",
                                    "SE":"Nej",
                                    "NO":"Nej"
                                }
                            }
                        }
                    },
                    "SETTINGS_TYPE_LANGUAGE":{
                        "TYPE":"DROPDOWN",
                        "TITLE":{
                            "DK":"Sprog dropdown",
                            "UK":"Language dropdown",
                            "SE":"Spr&aring;k dropdown",
                            "NO":"Spr&aring;k dropdown"
                        },
                        "OPTIONS":{
                            "FLAG": {
                                "TITLE": {
                                    "DK":"Flag",
                                    "UK":"Flag",
                                    "SE":"Flagga",
                                    "NO":"Flag"
                                }
                            },
                            "BOTH": {
                                "TITLE": {
                                    "DK":"Flag og tekst",
                                    "UK":"Flag and text",
                                    "SE":"Flagga och text",
                                    "NO":"Flag og tekst"
                                }
                            },
                            "TEXT": {
                                "TITLE": {
                                    "DK":"Tekst",
                                    "UK":"Text",
                                    "SE":"Text",
                                    "NO":"Tekst"
                                }
                            }
                        }
                    }
                }
            },
            "FOOTER_SETTINGS":{
                "TITLE":{
                    "DK":"Bund information",
                    "UK":"Footer information",
                    "SE":"Bund information",
                    "NO":"Bund information"
                },
                "SETTINGS":{
                    "SETTINGS_SHOW_CONTACT_TITLE":{
                        "TYPE":"DROPDOWN",
                        "TITLE":{
                            "DK":"Vis titel",
                            "UK":"Show title",
                            "SE":"Visa titel",
                            "NO":"Vis tittel"
                        },
                        "OPTIONS":{
                            "true": {
                                "TITLE": {
                                    "DK":"Ja",
                                    "UK":"Yes",
                                    "SE":"Ja",
                                    "NO":"Ja"
                                }
                            },
                            "false": {
                                "TITLE": {
                                    "DK":"Nej",
                                    "UK":"No",
                                    "SE":"Nej",
                                    "NO":"Nej"
                                }
                            }
                        }
                    },
                    "SETTINGS_SHOW_CONTACT_ADDRESS":{
                        "TYPE":"DROPDOWN",
                        "TITLE":{
                            "DK":"Vis adresse",
                            "UK":"Show address",
                            "SE":"Visa adress",
                            "NO":"Vis adress"
                        },
                        "OPTIONS":{
                            "true": {
                                "TITLE": {
                                    "DK":"Ja",
                                    "UK":"Yes",
                                    "SE":"Ja",
                                    "NO":"Ja"
                                }
                            },
                            "false": {
                                "TITLE": {
                                    "DK":"Nej",
                                    "UK":"No",
                                    "SE":"Nej",
                                    "NO":"Nej"
                                }
                            }
                        }
                    },
                    "SETTINGS_SHOW_CONTACT_ZIPCODE":{
                        "TYPE":"DROPDOWN",
                        "TITLE":{
                            "DK":"Vis postnummer",
                            "UK":"Show zipcode",
                            "SE":"Visa postnummer",
                            "NO":"Vis postnummer"
                        },
                        "OPTIONS":{
                            "true": {
                                "TITLE": {
                                    "DK":"Ja",
                                    "UK":"Yes",
                                    "SE":"Ja",
                                    "NO":"Ja"
                                }
                            },
                            "false": {
                                "TITLE": {
                                    "DK":"Nej",
                                    "UK":"No",
                                    "SE":"Nej",
                                    "NO":"Nej"
                                }
                            }
                        }
                    },
                    "SETTINGS_SHOW_CONTACT_CITY":{
                        "TYPE":"DROPDOWN",
                        "TITLE":{
                            "DK":"Vis by",
                            "UK":"Show city",
                            "SE":"Visa stad",
                            "NO":"Vis by"
                        },
                        "OPTIONS":{
                            "true": {
                                "TITLE": {
                                    "DK":"Ja",
                                    "UK":"Yes",
                                    "SE":"Ja",
                                    "NO":"Ja"
                                }
                            },
                            "false": {
                                "TITLE": {
                                    "DK":"Nej",
                                    "UK":"No",
                                    "SE":"Nej",
                                    "NO":"Nej"
                                }
                            }
                        }
                    },
                    "SETTINGS_SHOW_CONTACT_COUNTRY":{
                        "TYPE":"DROPDOWN",
                        "TITLE":{
                            "DK":"Vis land",
                            "UK":"Show country",
                            "SE":"Visa land",
                            "NO":"Vis land"
                        },
                        "OPTIONS":{
                            "true": {
                                "TITLE": {
                                    "DK":"Ja",
                                    "UK":"Yes",
                                    "SE":"Ja",
                                    "NO":"Ja"
                                }
                            },
                            "false": {
                                "TITLE": {
                                    "DK":"Nej",
                                    "UK":"No",
                                    "SE":"Nej",
                                    "NO":"Nej"
                                }
                            }
                        }
                    },
                    "SETTINGS_SHOW_CONTACT_PHONE":{
                        "TYPE":"DROPDOWN",
                        "TITLE":{
                            "DK":"Vis telefonnr.",
                            "UK":"Show phone number",
                            "SE":"Visa telefon nr.",
                            "NO":"Vis telefon nr."
                        },
                        "OPTIONS":{
                            "true": {
                                "TITLE": {
                                    "DK":"Ja",
                                    "UK":"Yes",
                                    "SE":"Ja",
                                    "NO":"Ja"
                                }
                            },
                            "false": {
                                "TITLE": {
                                    "DK":"Nej",
                                    "UK":"No",
                                    "SE":"Nej",
                                    "NO":"Nej"
                                }
                            }
                        }
                    },
                    "SETTINGS_SHOW_CONTACT_MOBILE":{
                        "TYPE":"DROPDOWN",
                        "TITLE":{
                            "DK":"Vis mobilnr.",
                            "UK":"Show mobile number",
                            "SE":"Visa mobil nr.",
                            "NO":"Vis mobil nr."
                        },
                        "OPTIONS":{
                            "true": {
                                "TITLE": {
                                    "DK":"Ja",
                                    "UK":"Yes",
                                    "SE":"Ja",
                                    "NO":"Ja"
                                }
                            },
                            "false": {
                                "TITLE": {
                                    "DK":"Nej",
                                    "UK":"No",
                                    "SE":"Nej",
                                    "NO":"Nej"
                                }
                            }
                        }
                    },
                    "SETTINGS_SHOW_CONTACT_FAX":{
                        "TYPE":"DROPDOWN",
                        "TITLE":{
                            "DK":"Vis fax nr.",
                            "UK":"Show fax number",
                            "SE":"Visa fax nr.",
                            "NO":"Vis fax nr."
                        },
                        "OPTIONS":{
                            "true": {
                                "TITLE": {
                                    "DK":"Ja",
                                    "UK":"Yes",
                                    "SE":"Ja",
                                    "NO":"Ja"
                                }
                            },
                            "false": {
                                "TITLE": {
                                    "DK":"Nej",
                                    "UK":"No",
                                    "SE":"Nej",
                                    "NO":"Nej"
                                }
                            }
                        }
                    },
                    "SETTINGS_SHOW_CONTACT_EMAIL":{
                        "TYPE":"DROPDOWN",
                        "TITLE":{
                            "DK":"Vis e-mail",
                            "UK":"Show e-mail",
                            "SE":"Visa e-post",
                            "NO":"Vis e-post"
                        },
                        "OPTIONS":{
                            "true": {
                                "TITLE": {
                                    "DK":"Ja",
                                    "UK":"Yes",
                                    "SE":"Ja",
                                    "NO":"Ja"
                                }
                            },
                            "false": {
                                "TITLE": {
                                    "DK":"Nej",
                                    "UK":"No",
                                    "SE":"Nej",
                                    "NO":"Nej"
                                }
                            }
                        }
                    },
                    "SETTINGS_SHOW_CONTACT_VAT_NUMBER":{
                        "TYPE":"DROPDOWN",
                        "TITLE":{
                            "DK":"Vis cvr-nummer",
                            "UK":"Show vat number",
                            "SE":"Visa org. nr.",
                            "NO":"Vis org. nr."
                        },
                        "OPTIONS":{
                            "true": {
                                "TITLE": {
                                    "DK":"Ja",
                                    "UK":"Yes",
                                    "SE":"Ja",
                                    "NO":"Ja"
                                }
                            },
                            "false": {
                                "TITLE": {
                                    "DK":"Nej",
                                    "UK":"No",
                                    "SE":"Nej",
                                    "NO":"Nej"
                                }
                            }
                        }
                    },
                    "SETTINGS_SHOW_CONTACT_BANK_NUMBER":{
                        "TYPE":"DROPDOWN",
                        "TITLE":{
                            "DK":"Vis bankoplysninger",
                            "UK":"Show bank details",
                            "SE":"Visa bankuppgifter",
                            "NO":"Vis bankopplysninger"
                        },
                        "OPTIONS":{
                            "true": {
                                "TITLE": {
                                    "DK":"Ja",
                                    "UK":"Yes",
                                    "SE":"Ja",
                                    "NO":"Ja"
                                }
                            },
                            "false": {
                                "TITLE": {
                                    "DK":"Nej",
                                    "UK":"No",
                                    "SE":"Nej",
                                    "NO":"Nej"
                                }
                            }
                        }
                    }
                }
            }
        }
    }
}
